{
    "metal_pipe_falling": {
        "sounds": [
            {
                "name": "createvolts:metal_pipe_falling",
                "pitch": 0.8,
                "weight": 1
            },
            {
                "name": "createvolts:metal_pipe_falling",
                "pitch": 0.9,
                "weight": 2
            },
            {
                "name": "createvolts:metal_pipe_falling",
                "pitch": 0.95,
                "weight": 4
            },
            {
                "name": "createvolts:metal_pipe_falling",
                "pitch": 1.0,
                "weight": 8
            },
            {
                "name": "createvolts:metal_pipe_falling",
                "pitch": 1.05,
                "weight": 4
            },
            {
                "name": "createvolts:metal_pipe_falling",
                "pitch": 1.1,
                "weight": 2
            },
            {
                "name": "createvolts:metal_pipe_falling",
                "pitch": 1.2,
                "weight": 1
            }
        ]
    }
}
