{
  "firstOpenDone": false,
  "autoSelectLayout": false,
  "customLayout": "en_us",
  "replaceKeybindScreen": false,
  "malilibSupport": true,
  "debug": false,
  "debug2": false,
  "crashOnProblematicError": false,
  "showHelpTooltips": true
}